<?xml version="1.0" encoding="utf-8"?>
<!-- Generator: Adobe Illustrator 22.1.0, SVG Export Plug-In . SVG Version: 6.00 Build 0)  -->
<svg version="1.1" id="Слой_1" xmlns="http://www.w3.org/2000/svg" xmlns:xlink="http://www.w3.org/1999/xlink" x="0px" y="0px"
	 viewBox="0 0 150 150" style="enable-background:new 0 0 150 150;" xml:space="preserve">
<style type="text/css">
	.st0{fill:none;stroke:#0764EF;stroke-width:0.75;stroke-miterlimit:10;}
</style>
<g>
	<path class="st0" d="M64.5,93.5C49.3,119.8,38,139,38,139"/>
	<path class="st0" d="M38,11.1c0,0,9.9,16.8,26.5,45.6"/>
	<path class="st0" d="M96.4,75c30.4,0,52.6-0.2,52.6-0.2"/>
	<polygon class="st0" points="64.5,56.6 64.5,93.5 96.4,75 	"/>
	<line class="st0" x1="64.5" y1="93.5" x2="1" y2="75"/>
	<line class="st0" x1="64.5" y1="56.6" x2="1" y2="75"/>
	<line class="st0" x1="64.5" y1="56.6" x2="112" y2="11.1"/>
	<line class="st0" x1="96.4" y1="75" x2="112" y2="11.1"/>
	<line class="st0" x1="64.5" y1="93.5" x2="112" y2="139"/>
	<line class="st0" x1="96.4" y1="75" x2="112" y2="139"/>
	<line class="st0" x1="1" y1="75" x2="112" y2="11.1"/>
	<line class="st0" x1="112" y1="139" x2="1" y2="75"/>
	<line class="st0" x1="112" y1="11.1" x2="112" y2="139"/>
	<polygon class="st0" points="112,10.9 38,10.9 1,75 38,139.1 112,139.1 149,75 	"/>
</g>
</svg>
